<?xml version="1.0" encoding="UTF-8" standalone="no"?>
<svg width="66px" height="66px" viewBox="0 0 66 66" version="1.1" xmlns="http://www.w3.org/2000/svg" xmlns:xlink="http://www.w3.org/1999/xlink">
    <!-- Generator: Sketch 40.3 (33839) - http://www.bohemiancoding.com/sketch -->
    <title>status</title>
    <desc>Created with Sketch.</desc>
    <defs></defs>
    <g id="Page-1" stroke="none" stroke-width="1" fill="none" fill-rule="evenodd">
        <g id="status" transform="translate(2.000000, 2.000000)">
            <circle id="Oval" stroke="#FFFFFF" stroke-width="4" cx="31" cy="31" r="31"></circle>
            <polygon id="Combined-Shape" fill="#FFFFFF" points="28.0817721 38.9976679 15.8116314 27.1485308 13.0329979 30.02589 26.7004542 43.224399 26.777888 43.144214 28.2579316 44.5734755 49.0976827 22.9932815 46.2203235 20.214648"></polygon>
        </g>
    </g>
</svg>